<!DOCTYPE svg PUBLIC "-//W3C//DTD SVG 1.1//EN" "http://www.w3.org/Graphics/SVG/1.1/DTD/svg11.dtd" [
	<!ENTITY ns_svg "http://www.w3.org/2000/svg">
	<!ENTITY ns_xlink "http://www.w3.org/1999/xlink">
]><svg version="1.1" xmlns="http://www.w3.org/2000/svg" width="276" height="90" viewBox="0 0 276 90" xml:space="preserve" overflow="visible"><g fill="#004097"><path d="M75.874 37.915l14.663-1.729v-3.871l-14.663 1.729v-1.238l10.423-1.229 8.307-.979v-.154l.053-.008v-9.752l-18.782 2.215v-3.252l-7.379.871v3.25l-18.473 2.178v6.088l-.021.004v3.816l18.493-2.18v1.24l-14.552 1.713v3.871l14.552-1.715v1.291l-19.247 2.268v4.387l46.234-5.451v-4.385l-19.608 2.311v-1.289zm0-10.113l11.559-1.363v1.188l-1.136.133-10.423 1.229v-1.187zm-7.379 2.054L56.938 31.22v-1.188l11.558-1.363v1.187zM84.296 56.423l.536 1.541-4.313.402-1.074-3.846 11.187-1.318V42.935l-36.688 4.324v8.361l-1.7.199-2.779 14.34 7.591-.895 2.399-12.387 9.351-1.102 3.915-.463 1.41 5.059 4.816-.568c-.264 1.389-.72 1.74-1.989 1.889l-5.572.658c-2.064.242-2.478.137-2.478-1.256v-4.297l-1.909.238-5.366.633v4.385c0 5.521 1.651 7.133 8.772 6.295l7.327-.865c4.291-.506 6.945-2.746 7.726-7.721l2.057 5.912 7.589-.895-3.217-9.254-7.591.898zm-20.135-4.229l-3.302.391v-2.064l3.302-.389v2.062zm15.738-3.918l3.406-.402v2.064l-3.406.4v-2.062zm-9.545 1.125l3.354-.396v2.064l-3.354.396v-2.064zM34.903 63.425l3.068-24.287 7.843-.926v-7.379l-18.318 2.16v-8.41l-7.895.93v8.41L1.645 36.04v7.379l7.549-.891 3.193 24.596-12.542 1.477v7.535l47.42-5.59v-7.533l-12.48 1.471.118-1.059zm-14.919 2.803l-.301-2.613-.899-7.811-1.993-14.17 13.6-1.604-1.981 14.553-1.207 10.793-7.219.852zM131.952 25.218l16.409-1.936V-.239L98.334 5.657v49.35l-.139 10.318c8.069-1.934 17.688-4.248 26.712-6.537l-.34-9.721a1203.05 1203.05 0 0 1-15.997 3.648V42.479l15.523-1.83 1.982-.232c.213.422.434.848.665 1.273 5.349 9.828 13.654 16.307 24.189 18.939V49.491c-5.374-2.047-9.776-5.547-13.161-10.453l15.269-1.801v-9.15l-19.629 2.314a41.133 41.133 0 0 1-1.456-5.183M108.57 13.534l29.758-3.507v5.354L108.57 18.89v-5.356zm13.694 18.18l-13.693 1.615v-5.355l12.969-1.529a46.104 46.104 0 0 0 1.156 5.219l-.432.05zM85.408 73.247l-4.653.549v1.141l1.608-.19v4.473l1.437-.17v-4.473l1.608-.189zM89.877 78.335v-2.852c0-.457-.112-.791-.341-1.002-.227-.213-.558-.293-.992-.242a1.752 1.752 0 0 0-.729.242 1.793 1.793 0 0 0-.544.555v-2.008l-1.357.16v5.613l1.35-.158v-2.219c0-.348.054-.607.164-.779.108-.172.282-.271.521-.299.219-.027.368.021.449.146.082.123.123.43.123.916v2.086l1.356-.159zM92.589 73.731c-.638.076-1.145.336-1.521.779-.376.445-.564 1.01-.564 1.695 0 .674.188 1.184.562 1.529.373.346.881.48 1.523.406.528-.063.972-.24 1.328-.531.357-.291.597-.67.719-1.139l-1.304.152a.734.734 0 0 1-.248.369.881.881 0 0 1-.445.166c-.243.029-.429-.025-.555-.164-.125-.139-.188-.355-.188-.646l2.801-.33.005-.092.002-.15c0-.717-.188-1.256-.563-1.617-.376-.362-.894-.505-1.552-.427m-.732 1.86c.024-.277.104-.498.238-.662a.78.78 0 0 1 .535-.283c.236-.027.423.025.559.158.136.135.207.334.212.6l-1.544.187zM100.325 72.546c.3-.035.542.004.727.119.184.113.31.301.376.563l1.349-.158c-.062-.613-.307-1.072-.738-1.381-.43-.307-.985-.422-1.667-.34-.858.1-1.544.451-2.056 1.053s-.769 1.357-.769 2.268c0 .873.252 1.549.756 2.025.502.477 1.164.666 1.984.57.687-.082 1.246-.332 1.679-.754.434-.422.698-.977.796-1.66l-1.334.156c-.05.307-.171.549-.365.73-.194.18-.452.287-.775.326-.4.049-.712-.068-.934-.346-.221-.277-.331-.689-.331-1.238 0-.551.116-1 .351-1.346.232-.343.55-.54.951-.587M107.651 74.163c0-.693-.195-1.211-.585-1.559-.392-.344-.93-.477-1.618-.395-.686.08-1.223.34-1.612.775-.389.438-.583 1.002-.583 1.697s.193 1.217.579 1.563c.387.346.925.477 1.616.396.688-.082 1.227-.342 1.618-.779.39-.438.585-1.005.585-1.698m-1.603 1.061a.79.79 0 0 1-.6.377c-.256.031-.455-.049-.594-.234-.141-.188-.21-.469-.21-.848 0-.377.068-.674.208-.893a.784.784 0 0 1 .596-.373c.259-.029.459.049.6.234.143.188.213.467.213.84 0 .377-.071.676-.213.897M108.31 72.021v4.143l1.349-.158v-2.219c0-.348.055-.607.164-.779.109-.174.283-.271.522-.301.218-.025.367.023.448.148.082.123.122.43.122.916v2.086l1.357-.16v-2.695c0-.549-.109-.932-.325-1.148-.218-.217-.569-.297-1.054-.24a1.7 1.7 0 0 0-.736.254c-.205.133-.38.322-.521.566v-.568l-1.326.155zM116.486 73.009a1.298 1.298 0 0 0-.347-.129c-.16-.041-.445-.098-.857-.168-.058-.012-.141-.023-.248-.039-.442-.068-.663-.184-.663-.346 0-.113.044-.207.132-.279a.717.717 0 0 1 .375-.139c.176-.02.313-.002.412.053.099.057.162.152.19.289l1.304-.154c-.041-.402-.224-.686-.549-.852s-.788-.215-1.388-.143c-.562.064-1.002.238-1.322.516s-.48.625-.48 1.045c0 .299.096.531.286.691.191.162.545.299 1.063.408.14.027.324.057.553.09.427.059.64.168.64.328a.39.39 0 0 1-.164.316c-.108.088-.259.141-.449.164-.229.027-.403.002-.524-.076-.12-.076-.188-.205-.203-.387l-1.356.16c.034.439.23.762.587.963.354.203.841.268 1.455.195.628-.074 1.116-.26 1.468-.555.35-.295.524-.668.524-1.117 0-.193-.034-.357-.105-.494s-.183-.248-.334-.34M119.79 74.817v-.865c-.021.006-.046.01-.069.014-.024.006-.059.01-.102.016-.196.021-.329-.006-.399-.088-.071-.08-.107-.258-.107-.531v-1.795l.694-.082v-.82l-.694.082v-1.174l-1.357.16v1.174l-.556.066v.818l.556-.064v1.604c0 .75.087 1.229.261 1.439.172.209.493.285.963.23.127-.016.259-.037.395-.07.134-.032.273-.069.415-.114M120.414 74.737l1.351-.16v-4.142l-1.351.16zM121.765 68.964l-1.351.16v1.094l1.351-.16zM124.429 74.337c.136-.031.274-.07.417-.115v-.865c-.022.006-.047.01-.07.014-.024.006-.057.01-.102.016-.194.021-.328-.006-.399-.086-.071-.082-.107-.26-.107-.533v-1.795l.694-.082v-.82l-.694.082v-1.174l-1.355.16v1.174l-.558.066v.818l.558-.064v1.604c0 .75.086 1.229.259 1.439.172.209.494.285.964.23.125-.016.256-.038.393-.069M129.365 73.683V69.54l-1.357.16v2.213c0 .354-.054.615-.161.783-.108.17-.28.268-.517.295-.211.025-.358-.021-.443-.139-.085-.119-.129-.348-.129-.689v-2.316l-1.355.16v2.846c0 .463.115.799.346 1.006.232.207.575.285 1.033.23.267-.031.502-.113.707-.246s.388-.326.551-.576v.572l1.325-.156zM130.395 68.245v1.174l-.558.064v.82l.558-.066v1.605c0 .748.086 1.229.259 1.438s.494.287.964.232c.127-.016.258-.039.396-.07.135-.031.274-.068.417-.113v-.865c-.023.006-.047.01-.071.014s-.057.01-.102.014c-.195.023-.327-.006-.399-.086-.071-.08-.106-.258-.106-.533v-1.795l.693-.08v-.82l-.693.082v-1.174l-1.358.159zM134.402 67.476l-1.348.158v1.094l1.348-.159zM133.054 73.247l1.348-.158v-4.143l-1.348.158zM137.265 72.892c.688-.08 1.228-.34 1.617-.779.391-.438.585-1.004.585-1.697s-.194-1.213-.585-1.559c-.39-.346-.929-.477-1.617-.396-.686.082-1.224.34-1.612.777-.388.438-.583 1.002-.583 1.695 0 .697.193 1.217.579 1.563.386.345.924.478 1.616.396m-.597-3.014a.776.776 0 0 1 .597-.373c.259-.031.46.047.601.234.14.186.211.465.211.84s-.071.674-.211.895a.789.789 0 0 1-.601.379c-.257.029-.454-.049-.595-.236-.14-.186-.21-.467-.21-.848 0-.375.069-.672.208-.891M144.09 71.946v-2.693c0-.549-.108-.932-.325-1.148-.218-.217-.569-.297-1.055-.24a1.66 1.66 0 0 0-.734.252c-.206.135-.38.324-.523.566v-.566l-1.326.156v4.141l1.351-.158v-2.217c0-.35.054-.609.163-.781.108-.17.283-.271.521-.299.219-.025.369.023.45.146.082.125.122.43.122.918v2.084l1.356-.161zM148.805 71.235c-.069-.025-.12-.09-.154-.193a1.434 1.434 0 0 1-.052-.438v-1.57c0-.396-.021-.682-.062-.855a1.026 1.026 0 0 0-.209-.439c-.143-.164-.34-.273-.593-.334-.253-.059-.563-.066-.932-.023-.593.07-1.049.238-1.369.504-.322.268-.517.639-.582 1.113l1.25-.146a.605.605 0 0 1 .211-.373.892.892 0 0 1 .46-.172c.178-.02.312-.006.401.047.091.051.136.137.136.256v.1c0 .146-.234.287-.701.418-.313.09-.57.17-.774.24-.368.129-.643.313-.824.547-.182.236-.272.527-.272.869 0 .373.116.656.349.85.232.191.549.264.947.217.256-.029.492-.104.707-.221.214-.115.417-.281.608-.494.009.076.02.148.031.219.012.068.024.137.04.199l1.384-.162v-.159zm-1.494-1.142c0 .217-.073.4-.22.551a.916.916 0 0 1-.565.266.45.45 0 0 1-.362-.092c-.092-.08-.137-.193-.137-.342 0-.119.034-.217.101-.297.067-.078.184-.15.346-.215.065-.025.163-.059.289-.1.262-.088.444-.17.549-.248v.477zM150.806 65.542l-1.358.16v5.613l1.358-.16zM52.19 84.345l-2.397.281v5.613l2.211-.26c.925-.109 1.616-.424 2.075-.941.458-.52.688-1.248.688-2.186 0-.906-.224-1.576-.666-2.008-.443-.431-1.08-.597-1.911-.499m.806 3.947c-.207.287-.533.455-.977.508l-.781.092v-3.246l.781-.092c.443-.053.77.039.977.275s.312.635.312 1.195c0 .559-.105.983-.312 1.268M57.396 85.062c-.639.074-1.146.334-1.521.779-.376.443-.563 1.01-.563 1.695 0 .674.187 1.182.561 1.527.373.348.881.482 1.524.406.527-.063.971-.238 1.328-.529a2.13 2.13 0 0 0 .718-1.141l-1.303.154a.737.737 0 0 1-.247.367.907.907 0 0 1-.447.168c-.243.027-.428-.027-.554-.166s-.188-.354-.188-.646l2.8-.33c.003-.025.005-.055.006-.09.003-.035.003-.086.003-.15 0-.717-.188-1.256-.564-1.619-.379-.361-.895-.506-1.553-.425m-.733 1.857c.025-.277.105-.498.238-.66a.783.783 0 0 1 .536-.285c.235-.027.422.025.558.16.136.133.206.334.212.598l-1.544.187zM65.131 84.188a1.653 1.653 0 0 0-.729.252 1.59 1.59 0 0 0-.512.564.895.895 0 0 0-.448-.453c-.197-.086-.446-.113-.746-.078a1.626 1.626 0 0 0-.725.252 1.637 1.637 0 0 0-.51.564v-.568l-1.304.154v4.143l1.327-.156v-2.217c0-.342.052-.6.156-.773a.61.61 0 0 1 .483-.301c.216-.025.369.018.459.135.09.113.137.33.137.645v2.367l1.199-.143v-2.217c0-.342.053-.6.156-.773a.612.612 0 0 1 .484-.301c.216-.025.369.02.46.135.09.115.134.33.134.645v2.367l1.327-.156v-2.779c0-.484-.114-.838-.341-1.057-.227-.221-.563-.303-1.007-.251M69.304 83.649c-.686.082-1.223.34-1.611.777s-.583 1.002-.583 1.695c0 .697.193 1.217.579 1.564.386.344.924.477 1.615.396.688-.082 1.228-.342 1.618-.781.391-.438.585-1.004.585-1.697s-.194-1.213-.585-1.559-.93-.475-1.618-.395m.6 3.016a.79.79 0 0 1-.601.377c-.257.029-.454-.049-.595-.234-.139-.188-.209-.471-.209-.85 0-.375.069-.672.207-.891a.779.779 0 0 1 .597-.373c.26-.031.46.047.601.234.141.186.211.467.211.84 0 .376-.07.674-.211.897M74.06 84.126a.496.496 0 0 1 .393.1c.102.084.171.221.21.408l1.367-.16c-.043-.5-.238-.873-.584-1.117-.347-.246-.805-.334-1.374-.268-.656.076-1.174.34-1.555.789s-.572 1.023-.572 1.725c0 .65.188 1.15.563 1.502.376.35.873.49 1.49.418.572-.068 1.035-.27 1.39-.605.354-.334.566-.77.635-1.303l-1.338.158a.932.932 0 0 1-.215.475.661.661 0 0 1-.426.197c-.235.029-.412-.045-.526-.217-.117-.174-.174-.451-.174-.83 0-.391.061-.693.183-.908s.299-.337.533-.364M77.953 83.503v-.723l-1.303.152v4.143l1.348-.158v-1.393c0-.359.011-.621.033-.785s.058-.293.109-.385a.87.87 0 0 1 .325-.326 1.36 1.36 0 0 1 .517-.154c.051-.006.104-.01.162-.014.057-.004.114-.004.173-.004v-1.34a1.792 1.792 0 0 0-.823.299c-.216.159-.395.387-.541.688M83.57 85.892a1.472 1.472 0 0 1-.051-.438v-1.57c0-.396-.021-.682-.062-.855s-.11-.32-.21-.439a1.108 1.108 0 0 0-.592-.334c-.253-.059-.564-.066-.932-.023-.593.07-1.05.238-1.37.506-.321.266-.516.637-.581 1.111l1.25-.146a.6.6 0 0 1 .211-.371.869.869 0 0 1 .459-.174c.178-.02.312-.004.403.047.09.053.135.137.135.256v.1c0 .148-.234.287-.701.418-.313.09-.571.17-.774.24-.367.129-.644.313-.824.549-.183.236-.272.525-.272.869 0 .373.116.656.348.848.233.193.549.266.947.219.256-.029.492-.104.707-.221s.418-.281.608-.494l.032.217c.012.068.024.137.039.201l1.385-.164v-.156c-.069-.028-.12-.091-.155-.196m-1.339-.95c0 .217-.073.4-.219.551a.919.919 0 0 1-.566.266c-.151.018-.271-.012-.362-.092a.426.426 0 0 1-.138-.34.45.45 0 0 1 .101-.299.904.904 0 0 1 .347-.215c.065-.025.162-.059.289-.1.262-.086.444-.168.549-.248v.477zM85.847 80.675l-1.356.16v1.174l-.557.066v.818l.557-.064v1.604c0 .75.086 1.229.259 1.439.173.209.494.285.964.23.127-.014.259-.037.395-.068s.274-.07.417-.115v-.863c-.022.004-.046.008-.07.014l-.101.014c-.195.021-.329-.006-.4-.086-.071-.082-.106-.26-.106-.533V82.67l.693-.082v-.818l-.693.08v-1.175zM87.148 81.319l1.349-.16v-1.094l-1.349.161zM87.148 85.839l1.349-.16v-4.143l-1.349.16zM91.281 82.097a.496.496 0 0 1 .393.1c.102.084.172.221.209.41l1.368-.162c-.043-.5-.237-.873-.585-1.117-.346-.246-.804-.336-1.374-.268-.654.076-1.173.34-1.554.789s-.572 1.023-.572 1.725c0 .65.188 1.15.564 1.502s.873.49 1.49.416c.571-.066 1.034-.268 1.389-.604.354-.334.565-.77.634-1.303l-1.337.156a.932.932 0 0 1-.215.477.663.663 0 0 1-.425.197c-.236.029-.413-.045-.528-.217-.116-.174-.173-.451-.173-.832 0-.389.06-.689.182-.904a.675.675 0 0 1 .534-.365M98.861 78.845l-2.569.303v5.613l1.445-.17v-2.004l1.17-.139c.629-.074 1.112-.291 1.448-.648.335-.359.503-.838.503-1.434 0-.568-.171-.984-.511-1.244-.34-.262-.835-.353-1.486-.277m.403 2.263c-.124.125-.315.203-.574.234l-.952.111v-1.346l.937-.109c.26-.031.453.002.581.098s.193.254.193.479c-.001.231-.062.408-.185.533M105.142 83.351a1.467 1.467 0 0 1-.052-.438v-1.57c0-.396-.02-.682-.061-.855a1.05 1.05 0 0 0-.209-.439c-.143-.164-.34-.275-.593-.334s-.564-.066-.933-.023c-.592.07-1.049.238-1.37.504-.32.268-.515.639-.58 1.113l1.25-.146a.6.6 0 0 1 .211-.373.885.885 0 0 1 .459-.172c.179-.02.312-.006.401.047.091.053.137.137.137.256v.1c0 .146-.234.287-.701.418-.313.09-.57.17-.774.238-.368.131-.644.314-.825.549-.181.236-.271.527-.271.869 0 .373.116.656.348.85.233.191.548.264.947.217.257-.029.492-.104.707-.221.215-.115.418-.281.607-.494l.032.217c.012.07.025.139.04.201l1.384-.162v-.156c-.068-.028-.12-.093-.154-.196m-1.339-.95c0 .217-.073.4-.22.551a.916.916 0 0 1-.565.266c-.151.018-.271-.014-.362-.092s-.138-.193-.138-.342c0-.119.033-.217.102-.297.067-.078.182-.15.345-.215.066-.025.162-.059.289-.1.263-.088.445-.17.55-.248v.477zM107.251 80.052v-.725l-1.303.154v4.143l1.349-.16v-1.391c0-.361.012-.623.032-.787.022-.164.059-.291.109-.385a.865.865 0 0 1 .326-.326 1.35 1.35 0 0 1 .516-.152c.051-.008.105-.012.162-.014.057-.004.115-.004.173-.004v-1.342c-.333.045-.607.145-.823.301s-.396.385-.541.688M111.143 77.694l-1.356.16v1.174l-.557.066v.818l.557-.064v1.604c0 .75.086 1.229.258 1.439.175.209.494.285.966.23a4.022 4.022 0 0 0 .811-.183v-.863c-.023.004-.046.01-.07.012l-.101.016c-.195.021-.329-.006-.4-.086-.07-.082-.106-.26-.106-.533v-1.795l.692-.082v-.82l-.692.082v-1.175zM114.315 81.319l-.777-2.732-1.46.172 1.396 3.502.015.031c.124.307.186.512.186.615 0 .154-.046.27-.139.344s-.264.127-.516.156l-.264.031v1.074l.358-.041c.351-.041.596-.08.734-.113.138-.035.256-.078.353-.129a.99.99 0 0 0 .343-.354c.099-.16.219-.443.358-.846l1.653-4.799-1.444.17-.796 2.919zM121.263 77.528c-.687.08-1.224.34-1.612.775-.389.438-.583 1.004-.583 1.697 0 .695.193 1.217.579 1.561.386.348.925.48 1.616.398.688-.08 1.227-.342 1.617-.779.391-.439.585-1.004.585-1.697 0-.695-.194-1.215-.585-1.559-.391-.345-.929-.478-1.617-.396m.599 3.014a.785.785 0 0 1-.6.377c-.257.031-.455-.047-.596-.234-.139-.188-.209-.469-.209-.848 0-.377.069-.674.208-.891a.783.783 0 0 1 .597-.375c.259-.029.459.049.6.234.141.188.212.467.212.84 0 .376-.071.676-.212.897M125.78 76.665c.066-.084.191-.139.377-.16.048-.006.087-.01.116-.012.03-.002.054-.002.075-.002l.003-.904c-.122.004-.233.01-.333.018-.102.008-.188.018-.262.025-.519.061-.889.207-1.11.439-.223.232-.333.59-.333 1.072l.001.168.006.105-.59.07v.834l.59-.068v3.207l1.361-.16v-3.209l.67-.078v-.834l-.67.078v-.117c.001-.23.033-.386.099-.472M131.366 78.552c0 .424-.041.713-.124.867s-.229.244-.444.27c-.204.025-.353-.02-.443-.135-.09-.113-.135-.313-.135-.6v-.373l-1.334.156c0 .025-.001.064-.004.117-.003.051-.005.09-.005.115 0 .707.157 1.213.472 1.521.313.307.795.422 1.441.346.704-.082 1.21-.316 1.52-.701.309-.385.463-.982.463-1.795v-3.492l-1.406.166v3.538zM137.384 79.552a1.541 1.541 0 0 1-.051-.438v-1.57c0-.396-.02-.682-.061-.855-.04-.176-.11-.32-.209-.439a1.09 1.09 0 0 0-.593-.334c-.254-.059-.563-.066-.933-.023-.592.07-1.048.238-1.37.504-.32.268-.515.639-.581 1.113l1.25-.146c.028-.156.1-.281.212-.373s.267-.148.458-.172c.18-.021.313-.006.403.047.09.051.135.137.135.256v.1c0 .146-.233.285-.7.418-.313.09-.57.17-.774.238-.368.131-.643.314-.825.549-.181.236-.271.525-.271.869 0 .373.115.656.348.85.233.191.549.264.948.217.256-.029.492-.104.706-.221.215-.115.418-.281.607-.494l.032.217c.012.07.025.137.04.201l1.384-.162v-.156c-.067-.028-.12-.093-.155-.196m-1.339-.949a.757.757 0 0 1-.219.549.918.918 0 0 1-.565.268.45.45 0 0 1-.362-.092c-.091-.08-.137-.193-.137-.342 0-.119.033-.219.101-.297.067-.08.182-.15.345-.217a6.83 6.83 0 0 1 .289-.098c.262-.088.445-.168.549-.248v.477zM140.785 75.265c-.267.033-.5.113-.699.246a1.772 1.772 0 0 0-.527.563v-.553l-1.357.16v5.805l1.349-.16V79.15c.138.195.313.334.524.42s.454.113.726.08c.506-.059.922-.314 1.246-.766.326-.451.488-1.002.488-1.656 0-.645-.162-1.148-.486-1.51-.324-.364-.745-.514-1.264-.453m.135 3.011a.768.768 0 0 1-.573.357c-.257.029-.455-.041-.598-.211-.143-.174-.214-.432-.214-.777 0-.377.067-.672.2-.881s.33-.328.589-.359c.259-.029.458.045.596.225.14.178.208.455.208.828 0 .336-.068.607-.208.818M146.868 78.435a1.472 1.472 0 0 1-.051-.438v-1.57c0-.396-.021-.682-.062-.857-.04-.174-.11-.32-.21-.438-.142-.164-.339-.275-.592-.334s-.563-.066-.932-.023c-.592.07-1.049.238-1.37.504-.322.268-.515.639-.581 1.113l1.25-.148a.6.6 0 0 1 .211-.371.888.888 0 0 1 .459-.172c.178-.021.313-.006.403.045.09.053.135.139.135.258v.098c0 .148-.234.287-.701.42-.313.09-.571.17-.773.238-.368.131-.644.313-.825.549-.183.236-.272.525-.272.869 0 .373.116.656.349.85.231.191.548.264.946.217.258-.029.492-.104.707-.221.215-.115.418-.281.608-.494a5.884 5.884 0 0 0 .072.418l1.384-.162v-.156c-.069-.027-.12-.092-.155-.195m-1.339-.95a.76.76 0 0 1-.219.549.92.92 0 0 1-.566.268.445.445 0 0 1-.362-.094c-.092-.078-.138-.191-.138-.34 0-.119.034-.219.103-.297.066-.078.182-.15.345-.217.065-.025.162-.057.289-.098.262-.088.444-.17.549-.248v.477zM150.258 74.157a1.669 1.669 0 0 0-.734.252c-.206.135-.38.324-.522.566v-.568l-1.326.156v4.143l1.35-.158v-2.219c0-.348.054-.607.163-.777.109-.174.283-.273.522-.301.219-.025.368.023.449.146.081.125.122.43.122.918v2.084l1.356-.16v-2.693c0-.549-.108-.932-.325-1.148-.218-.217-.57-.297-1.055-.241M189.199 53.116l18.506-2.181v-9.491l-18.506 2.182V33.151l21.963-2.589V21.38l-22.458 2.646-2.768-11.935-10.372 1.222 2.768 11.936-22.361 2.637v9.181l22.314-2.63v10.476l-18.505 2.182v9.49l18.505-2.182v11.118l-22.314 2.628v9.696l55.477-6.541V61.61l-22.249 2.623zM223.258 28.722l42.841-5.051v8.203l9.558-1.127V13.868l-10.032 1.184-1.763.207 2.309-7.407-9.971 1.176-2.308 7.407-4.536.533V7.139l-9.964 1.174v9.831l-4.471.527-2.253-6.696-9.971 1.174 2.253 6.696-1.692.199-9.083 1.072v16.879l9.083-1.072z"/><path d="M267.185 52.489c-.271 6.674-.679 7.535-2.645 7.768l-5.355.631c-2.236.264-2.576.102-2.576-2v-9.016l7.39-.871V26.835l-38.436 4.529V53.53l5.831-.686.98-.117c-3.878 6.684-9.154 11.098-15.753 13.174v10.387C228.69 73.2 238.037 64.8 243.759 51.829c.069-.156.134-.311.199-.467l2.822-.334v9.152c0 8.406 1.966 11.09 10.982 10.027l7.727-.912c9.68-1.141 10.502-7.629 10.666-17.84l-8.97 1.034zM253.83 41.591l-18.776 2.213v-4.949l18.776-2.213v4.949z"/></g></svg>